      @world : map
      !world : pacman, ghost, fruit
     @!world : pacman
    @@!world : pacman vitality
  @@!@!world : pacman x
  !@!@!world : pacman y
  @!!@!world : pacman direction
 @!!!@!world : pacman life
 !!!!@!world : score
    @!!world : ghosts
   @@!!world : ghost
  @@@!!world : ghost vitality
@@!@@!!world : ghost x
!@!@@!!world : ghost y
 !!@@!!world : ghost direction
    !!!world : fruit remaining time

